…
This document introduces you to dplyr's basic set of tools, and shows you how to apply them to data frames. `dplyr` also supports databases via the `dbplyr` package, once you've installed, read `vignette("dbplyr")` to learn more.

## Data: starwars

To explore the basic data manipulation verbs of `dplyr`, we'll use the dataset `starwars`. This dataset contains 87 characters and comes from the [Star Wars API](https://swapi.dev), and is documented in `?starwars` 

AV: This means: type `?starwars` in the Console. Try.


```r
dim(starwars)
#> [1] 87 14
starwars
#> # A tibble: 87 x 14
#>   name     height  mass hair_color skin_color  eye_color birth_year sex   gender
#>   <chr>     <int> <dbl> <chr>      <chr>       <chr>          <dbl> <chr> <chr> 
#> 1 Luke Sk~    172    77 blond      fair        blue            19   male  mascu~
#> 2 C-3PO       167    75 <NA>       gold        yellow         112   none  mascu~
#> 3 R2-D2        96    32 <NA>       white, blue red             33   none  mascu~
#> 4 Darth V~    202   136 none       white       yellow          41.9 male  mascu~
#> # ... with 83 more rows, and 5 more variables: homeworld <chr>, species <chr>,
#> #   films <list>, vehicles <list>, starships <list>
```
…
All of the `dplyr` functions take a data frame (or `tibble`) as the first argument. Rather than forcing the user to either save intermediate objects or nest functions, dplyr provides the `%>%` operator from `magrittr`. `x %>% f(y)` turns into `f(x, y)` so the result from one step is then "piped" into the next step. You can use the pipe to rewrite multiple operations that you can read left-to-right, top-to-bottom (**reading the pipe operator as "then"**). 

### Filter rows with `filter()`

`filter()` allows you to select a subset of rows in a data frame. Like all single verbs, the first argument is the tibble (or data frame). The second and subsequent arguments refer to variables within that data frame, selecting rows where the expression is `TRUE`.

For example, we can select all character with light skin color and brown eyes with:

    AV: Note the double equal to sign (==) below! Equivalent to MS Excel Data -> Filter


```r
starwars %>% filter(skin_color == "light", eye_color == "brown")
#> # A tibble: 7 x 14
#>   name     height  mass hair_color skin_color eye_color birth_year sex    gender
#>   <chr>     <int> <dbl> <chr>      <chr>      <chr>          <dbl> <chr>  <chr> 
#> 1 Leia Or~    150    49 brown      light      brown             19 female femin~
#> 2 Biggs D~    183    84 black      light      brown             24 male   mascu~
#> 3 Cordé       157    NA brown      light      brown             NA female femin~
#> 4 Dormé       165    NA brown      light      brown             NA female femin~
#> # ... with 3 more rows, and 5 more variables: homeworld <chr>, species <chr>,
#> #   films <list>, vehicles <list>, starships <list>
```


### Arrange rows with `arrange()`

`arrange()` works similarly to `filter()` except that instead of filtering or selecting rows, it **reorders** them. It takes a data frame, and a set of column names (or more complicated expressions) to order by. If you provide more than one column name, each additional column will be used to break ties in the values of preceding columns:


```r
starwars %>% arrange(height, mass)
#> # A tibble: 87 x 14
#>   name      height  mass hair_color skin_color eye_color birth_year sex   gender
#>   <chr>      <int> <dbl> <chr>      <chr>      <chr>          <dbl> <chr> <chr> 
#> 1 Yoda          66    17 white      green      brown            896 male  mascu~
#> 2 Ratts Ty~     79    15 none       grey, blue unknown           NA male  mascu~
#> 3 Wicket S~     88    20 brown      brown      brown              8 male  mascu~
#> 4 Dud Bolt      94    45 none       blue, grey yellow            NA male  mascu~
#> # ... with 83 more rows, and 5 more variables: homeworld <chr>, species <chr>,
#> #   films <list>, vehicles <list>, starships <list>
```

Use `desc()` to order a column in descending order:


```r
starwars %>% arrange(desc(height))
#> # A tibble: 87 x 14
#>   name     height  mass hair_color skin_color eye_color birth_year sex   gender 
#>   <chr>     <int> <dbl> <chr>      <chr>      <chr>          <dbl> <chr> <chr>  
#> 1 Yarael ~    264    NA none       white      yellow            NA male  mascul~
#> 2 Tarfful     234   136 brown      brown      blue              NA male  mascul~
#> 3 Lama Su     229    88 none       grey       black             NA male  mascul~
#> 4 Chewbac~    228   112 brown      unknown    blue             200 male  mascul~
#> # ... with 83 more rows, and 5 more variables: homeworld <chr>, species <chr>,
#> #   films <list>, vehicles <list>, starships <list>
```

###  Choose rows using their position with `slice()`

`slice()` lets you index rows by their (integer) locations. It allows you to select, remove, and duplicate rows. 

    AV: this is an important step in Prediction, Modelling and Machine Learning. 

We can get characters from row numbers 5 through 10.

```r
starwars %>% slice(5:10)
#> # A tibble: 6 x 14
#>   name     height  mass hair_color  skin_color eye_color birth_year sex   gender
#>   <chr>     <int> <dbl> <chr>       <chr>      <chr>          <dbl> <chr> <chr> 
#> 1 Leia Or~    150    49 brown       light      brown             19 fema~ femin~
#> 2 Owen La~    178   120 brown, grey light      blue              52 male  mascu~
#> 3 Beru Wh~    165    75 brown       light      blue              47 fema~ femin~
#> 4 R5-D4        97    32 <NA>        white, red red               NA none  mascu~
#> # ... with 2 more rows, and 5 more variables: homeworld <chr>, species <chr>,
#> #   films <list>, vehicles <list>, starships <list>
```
…
* `slice_sample()` randomly selects rows. Use the option prop to choose a certain proportion of the cases.


```r
starwars %>% slice_sample(n = 5)
#> # A tibble: 5 x 14
#>   name   height  mass hair_color skin_color   eye_color birth_year sex    gender
#>   <chr>   <int> <dbl> <chr>      <chr>        <chr>          <dbl> <chr>  <chr> 
#> 1 Dud B~     94    45 none       blue, grey   yellow            NA male   mascu~
#> 2 Bossk     190   113 none       green        red               53 male   mascu~
#> 3 Shaak~    178    57 none       red, blue, ~ black             NA female femin~
#> 4 Dormé     165    NA brown      light        brown             NA female femin~
#> # ... with 1 more row, and 5 more variables: homeworld <chr>, species <chr>,
#> #   films <list>, vehicles <list>, starships <list>
starwars %>% slice_sample(prop = 0.1)
#> # A tibble: 8 x 14
#>   name     height  mass hair_color skin_color  eye_color birth_year sex   gender
#>   <chr>     <int> <dbl> <chr>      <chr>       <chr>          <dbl> <chr> <chr> 
#> 1 Qui-Gon~    193    89 brown      fair        blue              92 male  mascu~
#> 2 Dexter ~    198   102 none       brown       yellow            NA male  mascu~
#> 3 R4-P17       96    NA none       silver, red red, blue         NA none  femin~
#> 4 Lama Su     229    88 none       grey        black             NA male  mascu~
#> # ... with 4 more rows, and 5 more variables: homeworld <chr>, species <chr>,
#> #   films <list>, vehicles <list>, starships <list>
```
…
### Select columns with `select()`

Often you work with large datasets with many columns but only a few are actually of interest to you. `select()` allows you to rapidly zoom in on a useful subset using operations that usually only work on numeric variable positions:


```r
# Select columns by name
starwars %>% select(hair_color, skin_color, eye_color)
#> # A tibble: 87 x 3
#>   hair_color skin_color  eye_color
#>   <chr>      <chr>       <chr>    
#> 1 blond      fair        blue     
#> 2 <NA>       gold        yellow   
#> 3 <NA>       white, blue red      
#> 4 none       white       yellow   
#> # ... with 83 more rows
# Select all columns between hair_color and eye_color (inclusive)
starwars %>% select(hair_color:eye_color)
#> # A tibble: 87 x 3
#>   hair_color skin_color  eye_color
#>   <chr>      <chr>       <chr>    
#> 1 blond      fair        blue     
#> 2 <NA>       gold        yellow   
#> 3 <NA>       white, blue red      
#> 4 none       white       yellow   
#> # ... with 83 more rows
# Select all columns except those from hair_color to eye_color (inclusive)
starwars %>% select(!(hair_color:eye_color))
#> # A tibble: 87 x 11
#>   name    height  mass birth_year sex   gender  homeworld species films vehicles
#>   <chr>    <int> <dbl>      <dbl> <chr> <chr>   <chr>     <chr>   <lis> <list>  
#> 1 Luke S~    172    77       19   male  mascul~ Tatooine  Human   <chr~ <chr [2~
#> 2 C-3PO      167    75      112   none  mascul~ Tatooine  Droid   <chr~ <chr [0~
#> 3 R2-D2       96    32       33   none  mascul~ Naboo     Droid   <chr~ <chr [0~
#> 4 Darth ~    202   136       41.9 male  mascul~ Tatooine  Human   <chr~ <chr [0~
#> # ... with 83 more rows, and 1 more variable: starships <list>
# Select all columns ending with color
starwars %>% select(ends_with("color"))
#> # A tibble: 87 x 3
#>   hair_color skin_color  eye_color
#>   <chr>      <chr>       <chr>    
#> 1 blond      fair        blue     
#> 2 <NA>       gold        yellow   
#> 3 <NA>       white, blue red      
#> 4 none       white       yellow   
#> # ... with 83 more rows
```

There are a number of helper functions you can use within `select()`, like `starts_with()`, `ends_with()`, `matches()` and `contains()`. These let you quickly match larger blocks of variables that meet some criterion. See `?select` for more details.

You can rename variables with `select()` by using named arguments:


```r
starwars %>% select(home_world = homeworld)
#> # A tibble: 87 x 1
#>   home_world
#>   <chr>     
#> 1 Tatooine  
#> 2 Tatooine  
#> 3 Naboo     
#> 4 Tatooine  
#> # ... with 83 more rows
```

But because `select()` drops all the variables not explicitly mentioned, it's not that useful. Instead, use `rename()`:


```r
starwars %>% rename(home_world = homeworld)
#> # A tibble: 87 x 14
#>   name     height  mass hair_color skin_color  eye_color birth_year sex   gender
#>   <chr>     <int> <dbl> <chr>      <chr>       <chr>          <dbl> <chr> <chr> 
#> 1 Luke Sk~    172    77 blond      fair        blue            19   male  mascu~
#> 2 C-3PO       167    75 <NA>       gold        yellow         112   none  mascu~
#> 3 R2-D2        96    32 <NA>       white, blue red             33   none  mascu~
#> 4 Darth V~    202   136 none       white       yellow          41.9 male  mascu~
#> # ... with 83 more rows, and 5 more variables: home_world <chr>, species <chr>,
#> #   films <list>, vehicles <list>, starships <list>
```

### Add new columns with `mutate()`

Besides selecting sets of existing columns, it's often useful to add new columns that are functions of existing columns. This is the job of `mutate()`:


```r
starwars %>% mutate(height_m = height / 100)
#> # A tibble: 87 x 15
#>   name     height  mass hair_color skin_color  eye_color birth_year sex   gender
#>   <chr>     <int> <dbl> <chr>      <chr>       <chr>          <dbl> <chr> <chr> 
#> 1 Luke Sk~    172    77 blond      fair        blue            19   male  mascu~
#> 2 C-3PO       167    75 <NA>       gold        yellow         112   none  mascu~
#> 3 R2-D2        96    32 <NA>       white, blue red             33   none  mascu~
#> 4 Darth V~    202   136 none       white       yellow          41.9 male  mascu~
#> # ... with 83 more rows, and 6 more variables: homeworld <chr>, species <chr>,
#> #   films <list>, vehicles <list>, starships <list>, height_m <dbl>
```

We can't see the height in meters we just calculated, but we can fix that using a select command.


```r
starwars %>%
  mutate(height_m = height / 100) %>%
  select(height_m, height, everything())
#> # A tibble: 87 x 15
#>   height_m height name     mass hair_color skin_color eye_color birth_year sex  
#>      <dbl>  <int> <chr>   <dbl> <chr>      <chr>      <chr>          <dbl> <chr>
#> 1     1.72    172 Luke S~    77 blond      fair       blue            19   male 
#> 2     1.67    167 C-3PO      75 <NA>       gold       yellow         112   none 
#> 3     0.96     96 R2-D2      32 <NA>       white, bl~ red             33   none 
#> 4     2.02    202 Darth ~   136 none       white      yellow          41.9 male 
#> # ... with 83 more rows, and 6 more variables: gender <chr>, homeworld <chr>,
#> #   species <chr>, films <list>, vehicles <list>, starships <list>
```

`dplyr::mutate()` is similar to the base `transform()`, but allows you to refer to columns that you've just created:


```r
starwars %>%
  mutate(
    height_m = height / 100,
    BMI = mass / (height_m^2)
  ) %>%
  select(BMI, everything())
#> # A tibble: 87 x 16
#>     BMI name       height  mass hair_color skin_color eye_color birth_year sex  
#>   <dbl> <chr>       <int> <dbl> <chr>      <chr>      <chr>          <dbl> <chr>
#> 1  26.0 Luke Skyw~    172    77 blond      fair       blue            19   male 
#> 2  26.9 C-3PO         167    75 <NA>       gold       yellow         112   none 
#> 3  34.7 R2-D2          96    32 <NA>       white, bl~ red             33   none 
#> 4  33.3 Darth Vad~    202   136 none       white      yellow          41.9 male 
#> # ... with 83 more rows, and 7 more variables: gender <chr>, homeworld <chr>,
#> #   species <chr>, films <list>, vehicles <list>, starships <list>,
#> #   height_m <dbl>
```

If you only want to keep the new variables, use `transmute()`:


```r
starwars %>%
  transmute(
    height_m = height / 100,
    BMI = mass / (height_m^2)
  )
#> # A tibble: 87 x 2
#>   height_m   BMI
#>      <dbl> <dbl>
#> 1     1.72  26.0
#> 2     1.67  26.9
#> 3     0.96  34.7
#> 4     2.02  33.3
#> # ... with 83 more rows
```

### Change column order with `relocate()`

Use a similar syntax as `select()` to move blocks of columns at once


```r
starwars %>% relocate(sex:homeworld, .before = height)
#> # A tibble: 87 x 14
#>   name      sex   gender  homeworld height  mass hair_color skin_color eye_color
#>   <chr>     <chr> <chr>   <chr>      <int> <dbl> <chr>      <chr>      <chr>    
#> 1 Luke Sky~ male  mascul~ Tatooine     172    77 blond      fair       blue     
#> 2 C-3PO     none  mascul~ Tatooine     167    75 <NA>       gold       yellow   
#> 3 R2-D2     none  mascul~ Naboo         96    32 <NA>       white, bl~ red      
#> 4 Darth Va~ male  mascul~ Tatooine     202   136 none       white      yellow   
#> # ... with 83 more rows, and 5 more variables: birth_year <dbl>, species <chr>,
#> #   films <list>, vehicles <list>, starships <list>
```
…
Or if you don't want to name the intermediate results, you need to wrap the function calls inside each other:


```r
summarise(
  select(
    group_by(starwars, species, sex),
    height, mass
  ),
  height = mean(height, na.rm = TRUE),
  mass = mean(mass, na.rm = TRUE)
)
#> Adding missing grouping variables: `species`, `sex`
#> `summarise()` has grouped output by 'species'. You can override using the `.groups` argument.
#> # A tibble: 41 x 4
#> # Groups:   species [38]
#>   species  sex   height  mass
#>   <chr>    <chr>  <dbl> <dbl>
#> 1 Aleena   male      79    15
#> 2 Besalisk male     198   102
#> 3 Cerean   male     198    82
#> 4 Chagrian male     196   NaN
#> # ... with 37 more rows
```

This is difficult to read because the order of the operations is from inside to out. Thus, the arguments are a long way away from the function. To get around this problem, dplyr provides the `%>%` operator from magrittr. `x %>% f(y)` turns into `f(x, y)` so you can use it to rewrite multiple operations that you can read left-to-right, top-to-bottom (reading the pipe operator as "then"):


```r
starwars %>%
  group_by(species, sex) %>%
  summarise(
    mean_height = mean(height, na.rm = TRUE),
    mean_mass = mean(mass, na.rm = TRUE)
  )
#> `summarise()` has grouped output by 'species'. You can override using the `.groups` argument.
#> # A tibble: 41 x 4
#> # Groups:   species [38]
#>   species  sex   mean_height mean_mass
#>   <chr>    <chr>       <dbl>     <dbl>
#> 1 Aleena   male           79        15
#> 2 Besalisk male          198       102
#> 3 Cerean   male          198        82
#> 4 Chagrian male          196       NaN
#> # ... with 37 more rows
```
…
Selecting operations expect column names and positions. Hence, when
you call `select()` with bare variable names, they actually represent
their own positions in the tibble. The following calls are completely
equivalent from dplyr's point of view:


```r
# `name` represents the integer 1
select(starwars, name)
#> # A tibble: 87 x 1
#>   name          
#>   <chr>         
#> 1 Luke Skywalker
#> 2 C-3PO         
#> 3 R2-D2         
#> 4 Darth Vader   
#> # ... with 83 more rows
select(starwars, 1)
#> # A tibble: 87 x 1
#>   name          
#>   <chr>         
#> 1 Luke Skywalker
#> 2 C-3PO         
#> 3 R2-D2         
#> 4 Darth Vader   
#> # ... with 83 more rows
```

By the same token, this means that you cannot refer to variables from the surrounding context if they have the same name as one of the columns. In the following example, `height` still represents 2, not 5:


```r
height <- 5
select(starwars, height)
#> # A tibble: 87 x 1
#>   height
#>    <int>
#> 1    172
#> 2    167
#> 3     96
#> 4    202
#> # ... with 83 more rows
```

One useful subtlety is that this only applies to bare names and to
selecting calls like `c(height, mass)` or `height:mass`. In all other
cases, the columns of the data frame are not put in scope. This allows
you to refer to contextual variables in selection helpers:


```r
name <- "color"
select(starwars, ends_with(name))
#> # A tibble: 87 x 3
#>   hair_color skin_color  eye_color
#>   <chr>      <chr>       <chr>    
#> 1 blond      fair        blue     
#> 2 <NA>       gold        yellow   
#> 3 <NA>       white, blue red      
#> 4 none       white       yellow   
#> # ... with 83 more rows
```

These semantics are usually intuitive. But note the subtle difference:


```r
name <- 5
select(starwars, name, identity(name))
#> # A tibble: 87 x 2
#>   name           skin_color 
#>   <chr>          <chr>      
#> 1 Luke Skywalker fair       
#> 2 C-3PO          gold       
#> 3 R2-D2          white, blue
#> 4 Darth Vader    white      
#> # ... with 83 more rows
```

In the first argument, `name` represents its own position `1`. In the
second argument, `name` is evaluated in the surrounding context and
represents the fifth column.

For a long time, `select()` used to only understand column positions.
Counting from dplyr 0.6, it now understands column names as well. This
makes it a bit easier to program with `select()`:


```r
vars <- c("name", "height")
select(starwars, all_of(vars), "mass")
#> # A tibble: 87 x 3
#>   name           height  mass
#>   <chr>           <int> <dbl>
#> 1 Luke Skywalker    172    77
#> 2 C-3PO             167    75
#> 3 R2-D2              96    32
#> 4 Darth Vader       202   136
#> # ... with 83 more rows
```
…
```r
df <- starwars %>% select(name, height, mass)
```

When we use `select()`, the bare column names stand for their own
positions in the tibble. For `mutate()` on the other hand, column
symbols represent the actual column vectors stored in the tibble.
Consider what happens if we give a string or a number to `mutate()`:


```r
mutate(df, "height", 2)
#> # A tibble: 87 x 5
#>   name           height  mass `"height"`   `2`
#>   <chr>           <int> <dbl> <chr>      <dbl>
#> 1 Luke Skywalker    172    77 height         2
#> 2 C-3PO             167    75 height         2
#> 3 R2-D2              96    32 height         2
#> 4 Darth Vader       202   136 height         2
#> # ... with 83 more rows
```
…
