…
  mutate(model_params = map(.x = model, 
                      .f = \(.x) broom::tidy(.x, 
                                             conf.int = TRUE, 
                                             conf.lvel = 0.95)),
         model_metrics = map(.x = model,
                      .f = \(x) broom::glance(x))) 
gapminder_models

## # A tibble: 142 × 5
## # Groups:   country [142]
##    country     list              model  model_params     model_metrics    
##    <fct>       <list>            <list> <list>           <list>           
##  1 Afghanistan <tibble [12 × 5]> <lm>   <tibble [2 × 7]> <tibble [1 × 12]>
##  2 Albania     <tibble [12 × 5]> <lm>   <tibble [2 × 7]> <tibble [1 × 12]>
##  3 Algeria     <tibble [12 × 5]> <lm>   <tibble [2 × 7]> <tibble [1 × 12]>
##  4 Angola      <tibble [12 × 5]> <lm>   <tibble [2 × 7]> <tibble [1 × 12]>
##  5 Argentina   <tibble [12 × 5]> <lm>   <tibble [2 × 7]> <tibble [1 × 12]>
##  6 Australia   <tibble [12 × 5]> <lm>   <tibble [2 × 7]> <tibble [1 × 12]>
##  7 Austria     <tibble [12 × 5]> <lm>   <tibble [2 × 7]> <tibble [1 × 12]>
##  8 Bahrain     <tibble [12 × 5]> <lm>   <tibble [2 × 7]> <tibble [1 × 12]>
##  9 Bangladesh  <tibble [12 × 5]> <lm>   <tibble [2 × 7]> <tibble [1 × 12]>
## 10 Belgium     <tibble [12 × 5]> <lm>   <tibble [2 × 7]> <tibble [1 × 12]>
## # ℹ 132 more rows

params <- gapminder_models %>% 
  select(country,model_params, model_metrics) %>% 
  ungroup() %>% 
  # Now unpack the linear model parameters into columns
  unnest(cols = model_params)

metrics <- gapminder_models %>% 
  select(country,model_metrics) %>% 
  ungroup() %>% 
  # Now unpack the linear model parameters into columns
  unnest(cols = model_metrics)
params

## # A tibble: 284 × 9
##    country     term     estimate std.error statistic  p.value conf.low conf.high
##    <fct>       <chr>       <dbl>     <dbl>     <dbl>    <dbl>    <dbl>     <dbl>
##  1 Afghanistan (Interc… -5.08e+2  40.5        -12.5  1.93e- 7 -5.98e+2  -417.   
##  2 Afghanistan year      2.75e-1   0.0205      13.5  9.84e- 8  2.30e-1     0.321
##  3 Albania     (Interc… -5.94e+2  65.7         -9.05 3.94e- 6 -7.40e+2  -448.   
##  4 Albania     year      3.35e-1   0.0332      10.1  1.46e- 6  2.61e-1     0.409
##  5 Algeria     (Interc… -1.07e+3  43.8        -24.4  3.07e-10 -1.17e+3  -970.   
##  6 Algeria     year      5.69e-1   0.0221      25.7  1.81e-10  5.20e-1     0.619
##  7 Angola      (Interc… -3.77e+2  46.6         -8.08 1.08e- 5 -4.80e+2  -273.   
##  8 Angola      year      2.09e-1   0.0235       8.90 4.59e- 6  1.57e-1     0.262
##  9 Argentina   (Interc… -3.90e+2   9.68       -40.3  2.14e-12 -4.11e+2  -368.   
## 10 Argentina   year      2.32e-1   0.00489     47.4  4.22e-13  2.21e-1     0.243
## # ℹ 274 more rows
## # ℹ 1 more variable: model_metrics <list>

metrics

## # A tibble: 142 × 13
##    country   r.squared adj.r.squared sigma statistic  p.value    df logLik   AIC
##    <fct>         <dbl>         <dbl> <dbl>     <dbl>    <dbl> <dbl>  <dbl> <dbl>
##  1 Afghanis…     0.948         0.942 1.22      181.  9.84e- 8     1 -18.3  42.7 
##  2 Albania       0.911         0.902 1.98      102.  1.46e- 6     1 -24.1  54.3 
##  3 Algeria       0.985         0.984 1.32      662.  1.81e-10     1 -19.3  44.6 
##  4 Angola        0.888         0.877 1.41       79.1 4.59e- 6     1 -20.0  46.1 
##  5 Argentina     0.996         0.995 0.292    2246.  4.22e-13     1  -1.17  8.35
##  6 Australia     0.980         0.978 0.621     481.  8.67e-10     1 -10.2  26.4 
##  7 Austria       0.992         0.991 0.407    1261.  7.44e-12     1  -5.16 16.3 
##  8 Bahrain       0.967         0.963 1.64      291.  1.02e- 8     1 -21.9  49.7 
##  9 Banglade…     0.989         0.988 0.977     930.  3.37e-11     1 -15.7  37.3 
## 10 Belgium       0.995         0.994 0.293    1822.  1.20e-12     1  -1.20  8.40
## # ℹ 132 more rows
## # ℹ 4 more variables: BIC <dbl>, deviance <dbl>, df.residual <int>, nobs <int>
…
      # glance/tidy is part of the group_map's .f variable.
      # Applies to each model
      # .f MUST generate a tibble here and *not* a list
      # Hence broom::tidy is essential!
      
      broom::glance(conf.int = TRUE,  # try `tidy()` and `augment()`
                    conf.lvel = 0.95)) %>% 
  
  # We already have a grouped tibble from `group_modify()`
  # Just ungroup()
  ungroup()

gapminder_model_dplyr

## # A tibble: 142 × 14
##    continent country      r.squared adj.r.squared sigma statistic  p.value    df
##    <fct>     <fct>            <dbl>         <dbl> <dbl>     <dbl>    <dbl> <dbl>
##  1 Africa    Algeria         0.985         0.984  1.32    662.    1.81e-10     1
##  2 Africa    Angola          0.888         0.877  1.41     79.1   4.59e- 6     1
##  3 Africa    Benin           0.967         0.963  1.17    289.    1.04e- 8     1
##  4 Africa    Botswana        0.0340       -0.0626 6.11      0.352 5.66e- 1     1
##  5 Africa    Burkina Faso    0.919         0.911  2.05    113.    9.05e- 7     1
##  6 Africa    Burundi         0.766         0.743  1.61     32.7   1.93e- 4     1
##  7 Africa    Cameroon        0.680         0.648  3.24     21.3   9.63e- 4     1
##  8 Africa    Central Afr…    0.493         0.443  3.52      9.73  1.09e- 2     1
##  9 Africa    Chad            0.872         0.860  1.83     68.4   8.82e- 6     1
## 10 Africa    Comoros         0.997         0.997  0.479  3165.    7.63e-14     1
## # ℹ 132 more rows
## # ℹ 6 more variables: logLik <dbl>, AIC <dbl>, BIC <dbl>, deviance <dbl>,
## #   df.residual <int>, nobs <int>
…
