…
grey_edges <- read_csv("./Data/greys-edges.csv")

## 
## -- Column specification --------------------------------------------------------
## cols(
##   from = col_character(),
##   to = col_character(),
##   weight = col_double(),
##   type = col_character()
## )

grey_nodes

## # A tibble: 54 x 7
##    name               sex   race  birthyear position  season sign    
##    <chr>              <chr> <chr>     <dbl> <chr>      <dbl> <chr>   
##  1 Addison Montgomery F     White      1967 Attending      1 Libra   
##  2 Adele Webber       F     Black      1949 Non-Staff      2 Leo     
##  3 Teddy Altman       F     White      1969 Attending      6 Pisces  
##  4 Amelia Shepherd    F     White      1981 Attending      7 Libra   
##  5 Arizona Robbins    F     White      1976 Attending      5 Leo     
##  6 Rebecca Pope       F     White      1975 Non-Staff      3 Gemini  
##  7 Jackson Avery      M     Black      1981 Resident       6 Leo     
##  8 Miranda Bailey     F     Black      1969 Attending      1 Virgo   
##  9 Ben Warren         M     Black      1972 Other          6 Aquarius
## 10 Henry Burton       M     White      1972 Non-Staff      7 Cancer  
## # ... with 44 more rows

grey_edges

## # A tibble: 57 x 4
##    from            to              weight type        
##    <chr>           <chr>            <dbl> <chr>       
##  1 Leah Murphy     Arizona Robbins      2 friends     
##  2 Leah Murphy     Alex Karev           4 benefits    
##  3 Lauren Boswell  Arizona Robbins      1 friends     
##  4 Arizona Robbins Callie Torres        1 friends     
##  5 Callie Torres   Erica Hahn           6 friends     
##  6 Callie Torres   Alex Karev          12 benefits    
##  7 Callie Torres   Mark Sloan           5 professional
##  8 Callie Torres   George O'Malley      2 professional
##  9 George O'Malley Izzie Stevens        3 professional
## 10 George O'Malley Meredith Grey        4 friends     
## # ... with 47 more rows
…
Good, you are now a gRaphista !!

Bonus Material for the Intrepid

Exploring the VisNetwork package. Make graphs wiggle and shake using tidy commands!

The visNetwork() function uses a nodes list and edges list to create an interactive graph. The nodes list must include an “id” column, and the edge list must have “from” and “to” columns. The function also plots the labels for the nodes, using the names of the cities from the “label” column in the node list.

library(visNetwork)

# Prepare the data for plotting by visNetwork
grey_nodes

## # A tibble: 54 x 7
##    name               sex   race  birthyear position  season sign    
##    <chr>              <chr> <chr>     <dbl> <chr>      <dbl> <chr>   
##  1 Addison Montgomery F     White      1967 Attending      1 Libra   
##  2 Adele Webber       F     Black      1949 Non-Staff      2 Leo     
##  3 Teddy Altman       F     White      1969 Attending      6 Pisces  
##  4 Amelia Shepherd    F     White      1981 Attending      7 Libra   
##  5 Arizona Robbins    F     White      1976 Attending      5 Leo     
##  6 Rebecca Pope       F     White      1975 Non-Staff      3 Gemini  
##  7 Jackson Avery      M     Black      1981 Resident       6 Leo     
##  8 Miranda Bailey     F     Black      1969 Attending      1 Virgo   
##  9 Ben Warren         M     Black      1972 Other          6 Aquarius
## 10 Henry Burton       M     White      1972 Non-Staff      7 Cancer  
## # ... with 44 more rows

grey_edges

## # A tibble: 57 x 4
##    from            to              weight type        
##    <chr>           <chr>            <dbl> <chr>       
##  1 Leah Murphy     Arizona Robbins      2 friends     
##  2 Leah Murphy     Alex Karev           4 benefits    
##  3 Lauren Boswell  Arizona Robbins      1 friends     
##  4 Arizona Robbins Callie Torres        1 friends     
##  5 Callie Torres   Erica Hahn           6 friends     
##  6 Callie Torres   Alex Karev          12 benefits    
##  7 Callie Torres   Mark Sloan           5 professional
##  8 Callie Torres   George O'Malley      2 professional
##  9 George O'Malley Izzie Stevens        3 professional
## 10 George O'Malley Meredith Grey        4 friends     
## # ... with 47 more rows

# Relabel greys anatomy nodes and edges for VisNetwork
grey_nodes_vis <- grey_nodes %>% 
  rowid_to_column(var = "id") %>% 
  rename("label" = name) %>% 
  mutate(sex = case_when(sex == "F" ~ "Female",
                         sex == "M" ~ "Male")) %>% 
  replace_na(., list(sex = "Transgender?")) %>% 
  rename("group" = sex)
grey_nodes_vis

## # A tibble: 54 x 8
##       id label              group  race  birthyear position  season sign    
##    <int> <chr>              <chr>  <chr>     <dbl> <chr>      <dbl> <chr>   
##  1     1 Addison Montgomery Female White      1967 Attending      1 Libra   
##  2     2 Adele Webber       Female Black      1949 Non-Staff      2 Leo     
##  3     3 Teddy Altman       Female White      1969 Attending      6 Pisces  
##  4     4 Amelia Shepherd    Female White      1981 Attending      7 Libra   
##  5     5 Arizona Robbins    Female White      1976 Attending      5 Leo     
##  6     6 Rebecca Pope       Female White      1975 Non-Staff      3 Gemini  
##  7     7 Jackson Avery      Male   Black      1981 Resident       6 Leo     
##  8     8 Miranda Bailey     Female Black      1969 Attending      1 Virgo   
##  9     9 Ben Warren         Male   Black      1972 Other          6 Aquarius
## 10    10 Henry Burton       Male   White      1972 Non-Staff      7 Cancer  
## # ... with 44 more rows

grey_edges_vis <- grey_edges %>% 
  select(from, to) %>% 
  left_join(., grey_nodes_vis, by = c("from" = "label")) %>% 
  left_join(., grey_nodes_vis, by = c("to" = "label")) %>%
  select("from"= id.x, "to" = id.y)
grey_edges_vis

## # A tibble: 57 x 2
##     from    to
##    <int> <int>
##  1    47     5
##  2    47    21
##  3    46     5
##  4     5    41
##  5    41    18
##  6    41    21
##  7    41    37
##  8    41    31
##  9    31    20
## 10    31    17
## # ... with 47 more rows
…
  # Matching Source <- Source Node id ("id.x")
  left_join(., starwars_nodes_vis, by = c("source" = "label")) %>% 
  
  # Matching Target <- Target Node id ("id.y")
  left_join(., starwars_nodes_vis, by = c("target" = "label")) %>% 
  
# Select "id.x" and "id.y" ONLY
# Rename them as "from" and "to"
# keep "weight" column for aesthetics of edges
  select("from" = id.x, "to" = id.y, "value" = weight)

# Check everything once
starwars_nodes_vis

## # A tibble: 22 x 2
##    label          id
##    <chr>       <dbl>
##  1 R2-D2           0
##  2 CHEWBACCA       1
##  3 C-3PO           2
##  4 LUKE            3
##  5 DARTH VADER     4
##  6 CAMIE           5
##  7 BIGGS           6
##  8 LEIA            7
##  9 BERU            8
## 10 OWEN            9
## # ... with 12 more rows

starwars_edges_vis

## # A tibble: 60 x 3
##     from    to value
##    <dbl> <dbl> <dbl>
##  1     2     0    17
##  2     3     0    13
##  3    10     0     6
##  4     7     0     5
##  5    13     0     5
##  6     1     0     3
##  7    16     0     1
##  8     1    10     7
##  9     2     1     5
## 10     1     3    16
## # ... with 50 more rows
…
