…
arvind <- babynames %>%
  filter(name == "Arvind" | name == "Aravind") %>% 
  filter(sex == "M") 

The first bit makes a new dataset called arvind that is a copy of the babynames dataset- the %>% tells you we are doing some other stuff to it later.

The second bit filters our babynames to only keep rows where the name is either Arvind or Aravind (read | as “or”.)

The third bit applies another filter to keep only those where sex is male.

Let’s check out the data.

arvind

# A tibble: 61 x 5
    year sex   name       n       prop
   <dbl> <chr> <chr>  <int>      <dbl>
 1  1970 M     Arvind     5 0.00000262
 2  1972 M     Arvind     8 0.00000478
 3  1975 M     Arvind     7 0.00000431
 4  1976 M     Arvind     5 0.00000306
 5  1977 M     Arvind     9 0.00000526
 6  1978 M     Arvind     6 0.00000351
 7  1979 M     Arvind     7 0.00000391
 8  1980 M     Arvind     6 0.00000323
 9  1981 M     Arvind     8 0.0000043 
10  1982 M     Arvind     6 0.00000318
# ... with 51 more rows
…
