…
Three columns. Bas!! Then we plot count and colour by income and we are
done !

Enter the pivot_longer

relig_income_long <- relig_income %>% pivot_longer(data = .,
                              cols = !religion,
                              names_to = "income_range",
                              values_to = "count")
relig_income_long

## # A tibble: 180 x 3
##    religion income_range       count
##    <chr>    <chr>              <dbl>
##  1 Agnostic <$10k                 27
##  2 Agnostic $10-20k               34
##  3 Agnostic $20-30k               60
##  4 Agnostic $30-40k               81
##  5 Agnostic $40-50k               76
##  6 Agnostic $50-75k              137
##  7 Agnostic $75-100k             122
##  8 Agnostic $100-150k            109
##  9 Agnostic >150k                 84
## 10 Agnostic Don't know/refused    96
## # ... with 170 more rows
…
numeric data in column names

billboard

## # A tibble: 317 x 79
##    artist   track   date.entered   wk1   wk2   wk3   wk4   wk5   wk6   wk7   wk8
##    <chr>    <chr>   <date>       <dbl> <dbl> <dbl> <dbl> <dbl> <dbl> <dbl> <dbl>
##  1 2 Pac    Baby D~ 2000-02-26      87    82    72    77    87    94    99    NA
##  2 2Ge+her  The Ha~ 2000-09-02      91    87    92    NA    NA    NA    NA    NA
##  3 3 Doors~ Krypto~ 2000-04-08      81    70    68    67    66    57    54    53
##  4 3 Doors~ Loser   2000-10-21      76    76    72    69    67    65    55    59
##  5 504 Boyz Wobble~ 2000-04-15      57    34    25    17    17    31    36    49
##  6 98^0     Give M~ 2000-08-19      51    39    34    26    26    19     2     2
##  7 A*Teens  Dancin~ 2000-07-08      97    97    96    95   100    NA    NA    NA
##  8 Aaliyah  I Don'~ 2000-01-29      84    62    51    41    38    35    35    38
##  9 Aaliyah  Try Ag~ 2000-03-18      59    53    38    28    21    18    16    14
## 10 Adams, ~ Open M~ 2000-08-26      76    76    74    69    68    67    61    58
## # ... with 307 more rows, and 68 more variables: wk9 <dbl>, wk10 <dbl>,
## #   wk11 <dbl>, wk12 <dbl>, wk13 <dbl>, wk14 <dbl>, wk15 <dbl>, wk16 <dbl>,
## #   wk17 <dbl>, wk18 <dbl>, wk19 <dbl>, wk20 <dbl>, wk21 <dbl>, wk22 <dbl>,
## #   wk23 <dbl>, wk24 <dbl>, wk25 <dbl>, wk26 <dbl>, wk27 <dbl>, wk28 <dbl>,
## #   wk29 <dbl>, wk30 <dbl>, wk31 <dbl>, wk32 <dbl>, wk33 <dbl>, wk34 <dbl>,
## #   wk35 <dbl>, wk36 <dbl>, wk37 <dbl>, wk38 <dbl>, wk39 <dbl>, wk40 <dbl>,
## #   wk41 <dbl>, wk42 <dbl>, wk43 <dbl>, wk44 <dbl>, wk45 <dbl>, wk46 <dbl>,
## #   wk47 <dbl>, wk48 <dbl>, wk49 <dbl>, wk50 <dbl>, wk51 <dbl>, wk52 <dbl>,
## #   wk53 <dbl>, wk54 <dbl>, wk55 <dbl>, wk56 <dbl>, wk57 <dbl>, wk58 <dbl>,
…
Here the columns starting_with “wk” are actually *numeric columns, corresponding to the week number after the song entered the charts.

The number is the rank of a song in each of the weeks it spent on the charts!!

So we can do this:

billboard %>% 
  pivot_longer(
    cols = starts_with("wk"), 
    names_to = "week", 
    values_to = "rank",
    values_drop_na = TRUE
  )

## # A tibble: 5,307 x 5
##    artist  track                   date.entered week   rank
##    <chr>   <chr>                   <date>       <chr> <dbl>
##  1 2 Pac   Baby Don't Cry (Keep... 2000-02-26   wk1      87
##  2 2 Pac   Baby Don't Cry (Keep... 2000-02-26   wk2      82
##  3 2 Pac   Baby Don't Cry (Keep... 2000-02-26   wk3      72
##  4 2 Pac   Baby Don't Cry (Keep... 2000-02-26   wk4      77
##  5 2 Pac   Baby Don't Cry (Keep... 2000-02-26   wk5      87
##  6 2 Pac   Baby Don't Cry (Keep... 2000-02-26   wk6      94
##  7 2 Pac   Baby Don't Cry (Keep... 2000-02-26   wk7      99
##  8 2Ge+her The Hardest Part Of ... 2000-09-02   wk1      91
##  9 2Ge+her The Hardest Part Of ... 2000-09-02   wk2      87
## 10 2Ge+her The Hardest Part Of ... 2000-09-02   wk3      92
## # ... with 5,297 more rows

billboard %>% 
  pivot_longer(
    cols = starts_with("wk"), 
    names_to = "week", 
    names_prefix = "wk",
    names_transform = list(week = as.integer),
    values_to = "rank",
    values_drop_na = TRUE,
  )

## # A tibble: 5,307 x 5
##    artist  track                   date.entered  week  rank
##    <chr>   <chr>                   <date>       <int> <dbl>
##  1 2 Pac   Baby Don't Cry (Keep... 2000-02-26       1    87
##  2 2 Pac   Baby Don't Cry (Keep... 2000-02-26       2    82
##  3 2 Pac   Baby Don't Cry (Keep... 2000-02-26       3    72
##  4 2 Pac   Baby Don't Cry (Keep... 2000-02-26       4    77
##  5 2 Pac   Baby Don't Cry (Keep... 2000-02-26       5    87
##  6 2 Pac   Baby Don't Cry (Keep... 2000-02-26       6    94
##  7 2 Pac   Baby Don't Cry (Keep... 2000-02-26       7    99
##  8 2Ge+her The Hardest Part Of ... 2000-09-02       1    91
##  9 2Ge+her The Hardest Part Of ... 2000-09-02       2    87
## 10 2Ge+her The Hardest Part Of ... 2000-09-02       3    92
## # ... with 5,297 more rows

WE CAN STOP HERE ;-D

Many variables in column names

who

## # A tibble: 7,240 x 60
##    country  iso2  iso3   year new_sp_m014 new_sp_m1524 new_sp_m2534 new_sp_m3544
##    <chr>    <chr> <chr> <int>       <int>        <int>        <int>        <int>
##  1 Afghani~ AF    AFG    1980          NA           NA           NA           NA
##  2 Afghani~ AF    AFG    1981          NA           NA           NA           NA
##  3 Afghani~ AF    AFG    1982          NA           NA           NA           NA
##  4 Afghani~ AF    AFG    1983          NA           NA           NA           NA
##  5 Afghani~ AF    AFG    1984          NA           NA           NA           NA
##  6 Afghani~ AF    AFG    1985          NA           NA           NA           NA
##  7 Afghani~ AF    AFG    1986          NA           NA           NA           NA
##  8 Afghani~ AF    AFG    1987          NA           NA           NA           NA
##  9 Afghani~ AF    AFG    1988          NA           NA           NA           NA
## 10 Afghani~ AF    AFG    1989          NA           NA           NA           NA
## # ... with 7,230 more rows, and 52 more variables: new_sp_m4554 <int>,
## #   new_sp_m5564 <int>, new_sp_m65 <int>, new_sp_f014 <int>,
## #   new_sp_f1524 <int>, new_sp_f2534 <int>, new_sp_f3544 <int>,
## #   new_sp_f4554 <int>, new_sp_f5564 <int>, new_sp_f65 <int>,
## #   new_sn_m014 <int>, new_sn_m1524 <int>, new_sn_m2534 <int>,
## #   new_sn_m3544 <int>, new_sn_m4554 <int>, new_sn_m5564 <int>,
## #   new_sn_m65 <int>, new_sn_f014 <int>, new_sn_f1524 <int>,
## #   new_sn_f2534 <int>, new_sn_f3544 <int>, new_sn_f4554 <int>,
## #   new_sn_f5564 <int>, new_sn_f65 <int>, new_ep_m014 <int>,
…
